  ___                                       _     _               ___   _     __   __    _
 | _ \  ___  __ __ __  ___   _ _   ___   __| |   | |__   _  _    |_ _| | |    \ \ / /   /_\
 |  _/ / _ \ \ V  V / / -_) | '_| / -_) / _` |   | '_ \ | || |    | |  | |__   \ V /   / _ \
 |_|   \___/  \_/\_/  \___| |_|   \___| \__,_|   |_.__/  \_, |   |___| |____|   |_|   /_/ \_\
                                                         |__/       